\relax 
\@writefile{toc}{\contentsline {chapter}{\numberline {A}Models for Face Recognition}{50}}
\@writefile{lof}{\addvspace {10\p@ }}
\@writefile{lot}{\addvspace {10\p@ }}
\@writefile{toc}{\contentsline {section}{\numberline {A.1}Introduction}{50}}
\@writefile{toc}{\contentsline {section}{\numberline {A.2}Legacy Models}{50}}
\@writefile{toc}{\contentsline {section}{\numberline {A.3}Deep Neural Network Models}{51}}
\@writefile{toc}{\contentsline {chapter}{\numberline {B}Implementation of Kohonen Self Organising Map}{53}}
\@writefile{lof}{\addvspace {10\p@ }}
\@writefile{lot}{\addvspace {10\p@ }}
\@writefile{toc}{\contentsline {chapter}{\numberline {C}Blob Association and Tracking Algorithm}{59}}
\@writefile{lof}{\addvspace {10\p@ }}
\@writefile{lot}{\addvspace {10\p@ }}
\@writefile{toc}{\contentsline {section}{\numberline {C.1}Blob Association}{59}}
\@writefile{toc}{\contentsline {section}{\numberline {C.2}Updating States}{60}}
\@setckpt{appendix}{
\setcounter{page}{62}
\setcounter{equation}{0}
\setcounter{enumi}{3}
\setcounter{enumii}{0}
\setcounter{enumiii}{0}
\setcounter{enumiv}{4}
\setcounter{footnote}{0}
\setcounter{mpfootnote}{0}
\setcounter{part}{0}
\setcounter{chapter}{8}
\setcounter{section}{2}
\setcounter{subsection}{0}
\setcounter{subsubsection}{0}
\setcounter{paragraph}{0}
\setcounter{subparagraph}{0}
\setcounter{figure}{0}
\setcounter{table}{0}
\setcounter{ContinuedFloat}{0}
\setcounter{lstnumber}{36}
\setcounter{@pps}{1}
\setcounter{@ppsavesec}{8}
\setcounter{@ppsaveapp}{3}
\setcounter{lstlisting}{0}
}
