\relax 
\@writefile{toc}{\contentsline {chapter}{\numberline {8}Conclusion and Future Improvements}{46}}
\@writefile{lof}{\addvspace {10\p@ }}
\@writefile{lot}{\addvspace {10\p@ }}
\@writefile{toc}{\contentsline {section}{\numberline {8.1}Conclusion}{46}}
\@writefile{toc}{\contentsline {section}{\numberline {8.2}Future Improvements}{47}}
\@writefile{toc}{\contentsline {subsection}{\numberline {8.2.1}Improvements to Behaviour Based Surveillance}{47}}
\@writefile{toc}{\contentsline {subsection}{\numberline {8.2.2}Improvements to Face Recognition}{47}}
\@setckpt{Conclusion}{
\setcounter{page}{49}
\setcounter{equation}{0}
\setcounter{enumi}{3}
\setcounter{enumii}{0}
\setcounter{enumiii}{0}
\setcounter{enumiv}{0}
\setcounter{footnote}{0}
\setcounter{mpfootnote}{0}
\setcounter{part}{0}
\setcounter{chapter}{8}
\setcounter{section}{2}
\setcounter{subsection}{2}
\setcounter{subsubsection}{0}
\setcounter{paragraph}{0}
\setcounter{subparagraph}{0}
\setcounter{figure}{0}
\setcounter{table}{0}
\setcounter{ContinuedFloat}{0}
\setcounter{lstnumber}{15}
\setcounter{@pps}{0}
\setcounter{@ppsavesec}{0}
\setcounter{@ppsaveapp}{0}
\setcounter{lstlisting}{0}
}
