\relax 
\@writefile{toc}{\contentsline {chapter}{\numberline {3}Design of Solution}{12}}
\@writefile{lof}{\addvspace {10\p@ }}
\@writefile{lot}{\addvspace {10\p@ }}
\@writefile{toc}{\contentsline {section}{\numberline {3.1}Introduction}{12}}
\@writefile{lof}{\contentsline {figure}{\numberline {3.1}{\ignorespaces Overall Structure of the Application\relax }}{12}}
\newlabel{intro}{{3.1}{12}}
\@writefile{toc}{\contentsline {section}{\numberline {3.2}Video Analysis}{13}}
\@writefile{toc}{\contentsline {subsection}{\numberline {3.2.1}Introduction}{13}}
\@writefile{toc}{\contentsline {subsubsection}{Motion Vector}{13}}
\@writefile{toc}{\contentsline {subsection}{\numberline {3.2.2}Analysis Procedure}{13}}
\@writefile{toc}{\contentsline {subsubsection}{Extracting Spatial Information}{13}}
\citation{tracking_states}
\@writefile{toc}{\contentsline {subsubsection}{Updating Tracked Objects}{15}}
\@writefile{lof}{\contentsline {figure}{\numberline {3.2}{\ignorespaces Transitions between object states.\relax }}{16}}
\newlabel{statetr}{{3.2}{16}}
\@writefile{toc}{\contentsline {section}{\numberline {3.3}Neural Networks for Motion Analysis}{17}}
\@writefile{toc}{\contentsline {subsection}{\numberline {3.3.1}Introduction}{17}}
\@writefile{toc}{\contentsline {subsection}{\numberline {3.3.2}Creating the Neural Network and Forming the Training Set}{17}}
\@writefile{toc}{\contentsline {subsubsection}{Creating The Training Set}{17}}
\@writefile{toc}{\contentsline {subsubsection}{Creating Neural Networks}{18}}
\@writefile{lof}{\contentsline {figure}{\numberline {3.3}{\ignorespaces General Design Of The Neural Networks.\relax }}{18}}
\newlabel{network}{{3.3}{18}}
\@writefile{toc}{\contentsline {subsection}{\numberline {3.3.3}Training The Neural Network}{19}}
\@writefile{toc}{\contentsline {subsubsection}{Parameters Involved In The Training Phase}{19}}
\@writefile{toc}{\contentsline {subsection}{\numberline {3.3.4}Testing The Neural Network}{19}}
\@writefile{toc}{\contentsline {section}{\numberline {3.4}Design for Face Recognition}{19}}
\@setckpt{Design}{
\setcounter{page}{21}
\setcounter{equation}{0}
\setcounter{enumi}{2}
\setcounter{enumii}{0}
\setcounter{enumiii}{0}
\setcounter{enumiv}{0}
\setcounter{footnote}{0}
\setcounter{mpfootnote}{0}
\setcounter{part}{0}
\setcounter{chapter}{3}
\setcounter{section}{4}
\setcounter{subsection}{0}
\setcounter{subsubsection}{0}
\setcounter{paragraph}{0}
\setcounter{subparagraph}{0}
\setcounter{figure}{3}
\setcounter{table}{0}
\setcounter{ContinuedFloat}{0}
\setcounter{lstnumber}{1}
\setcounter{@pps}{0}
\setcounter{@ppsavesec}{0}
\setcounter{@ppsaveapp}{0}
\setcounter{lstlisting}{0}
}
