\relax 
\@writefile{toc}{\contentsline {chapter}{\numberline {7}Testing}{41}}
\@writefile{lof}{\addvspace {10\p@ }}
\@writefile{lot}{\addvspace {10\p@ }}
\@writefile{toc}{\contentsline {section}{\numberline {7.1}Testing of Video Analysis and Neural Network Modules}{41}}
\@writefile{toc}{\contentsline {subsection}{\numberline {7.1.1}Testing and Benchmarking of Background Subtraction}{41}}
\@writefile{toc}{\contentsline {subsection}{\numberline {7.1.2}Testing Multiple Object Tracking}{41}}
\@writefile{toc}{\contentsline {subsection}{\numberline {7.1.3}Testing the Combined Analysis and Neural Network Modules}{42}}
\@writefile{toc}{\contentsline {subsection}{\numberline {7.1.4}Details of Testing Platform}{42}}
\@writefile{toc}{\contentsline {subsubsection}{Hardware Platform}{42}}
\@writefile{toc}{\contentsline {subsubsection}{Software Platform}{42}}
\@writefile{toc}{\contentsline {section}{\numberline {7.2}{Benchmarking and Testing Face Recognition}}{42}}
\citation{clandmark-website}
\@writefile{toc}{\contentsline {subsection}{\numberline {7.2.1}Training with LFW}{43}}
\@writefile{toc}{\contentsline {subsubsection}{Configuration of KSOM}{43}}
\@writefile{toc}{\contentsline {subsubsection}{Result of training}{43}}
\@writefile{lof}{\contentsline {figure}{\numberline {7.1}{\ignorespaces Classification of training data into various classes. Class numbers along X axis. Number of vectors along Y axis.\relax }}{44}}
\newlabel{imgsinclasses}{{7.1}{44}}
\@writefile{toc}{\contentsline {subsection}{\numberline {7.2.2}Testing against the LFW}{44}}
\@writefile{toc}{\contentsline {subsection}{\numberline {7.2.3}Details of Benchmarking Environment}{44}}
\@writefile{toc}{\contentsline {subsubsection}{Platform Configuration}{44}}
\@writefile{lof}{\contentsline {figure}{\numberline {7.2}{\ignorespaces Deviation between actual input and best match for spurious recognition. Each '+' indicates one spurious recognition. Devation values are plotted along X axis.\relax }}{45}}
\newlabel{spurious-benchmark}{{7.2}{45}}
\@writefile{toc}{\contentsline {subsubsection}{Application Environment}{45}}
\@setckpt{fr_chapter4}{
\setcounter{page}{46}
\setcounter{equation}{0}
\setcounter{enumi}{2}
\setcounter{enumii}{0}
\setcounter{enumiii}{0}
\setcounter{enumiv}{0}
\setcounter{footnote}{0}
\setcounter{mpfootnote}{0}
\setcounter{part}{0}
\setcounter{chapter}{7}
\setcounter{section}{2}
\setcounter{subsection}{3}
\setcounter{subsubsection}{0}
\setcounter{paragraph}{0}
\setcounter{subparagraph}{0}
\setcounter{figure}{2}
\setcounter{table}{0}
\setcounter{ContinuedFloat}{0}
\setcounter{lstnumber}{15}
\setcounter{@pps}{0}
\setcounter{@ppsavesec}{0}
\setcounter{@ppsaveapp}{0}
\setcounter{lstlisting}{0}
}
