\relax 
\@writefile{toc}{\contentsline {chapter}{\numberline {6}Graphical User Interface Details}{34}}
\@writefile{lof}{\addvspace {10\p@ }}
\@writefile{lot}{\addvspace {10\p@ }}
\@writefile{toc}{\contentsline {section}{\numberline {6.1}GUI for Behaviour Analysis}{34}}
\@writefile{toc}{\contentsline {subsection}{\numberline {6.1.1}GUI for Training}{34}}
\@writefile{lof}{\contentsline {figure}{\numberline {6.1}{\ignorespaces User Interface for Training\relax }}{34}}
\newlabel{training-ui}{{6.1}{34}}
\@writefile{toc}{\contentsline {subsection}{\numberline {6.1.2}GUI for Threat Detection}{35}}
\@writefile{lof}{\contentsline {figure}{\numberline {6.2}{\ignorespaces Normal Interface for the Application\relax }}{35}}
\newlabel{normal}{{6.2}{35}}
\@writefile{toc}{\contentsline {section}{\numberline {6.2}GUI for Face Recognition Neural Network Training}{35}}
\@writefile{lof}{\contentsline {figure}{\numberline {6.3}{\ignorespaces Threat Detection\relax }}{36}}
\newlabel{threat}{{6.3}{36}}
\@writefile{lof}{\contentsline {figure}{\numberline {6.4}{\ignorespaces Graphical User Interface\relax }}{37}}
\newlabel{GUI}{{6.4}{37}}
\@writefile{toc}{\contentsline {subsection}{\numberline {6.2.1}Layout}{38}}
\@writefile{toc}{\contentsline {subsubsection}{File Details Fields}{38}}
\@writefile{toc}{\contentsline {subsubsection}{Neural Network Configuration}{38}}
\@writefile{toc}{\contentsline {subsubsection}{Buttons Panel}{39}}
\citation{Beale-Jackson}
\@writefile{toc}{\contentsline {subsection}{\numberline {6.2.2}Executable for Landmarking}{40}}
\@writefile{toc}{\contentsline {subsection}{\numberline {6.2.3}Executable for Training KSOM}{40}}
\@setckpt{fr_chapter3}{
\setcounter{page}{41}
\setcounter{equation}{0}
\setcounter{enumi}{2}
\setcounter{enumii}{0}
\setcounter{enumiii}{0}
\setcounter{enumiv}{0}
\setcounter{footnote}{0}
\setcounter{mpfootnote}{0}
\setcounter{part}{0}
\setcounter{chapter}{6}
\setcounter{section}{2}
\setcounter{subsection}{3}
\setcounter{subsubsection}{0}
\setcounter{paragraph}{0}
\setcounter{subparagraph}{0}
\setcounter{figure}{4}
\setcounter{table}{0}
\setcounter{ContinuedFloat}{0}
\setcounter{lstnumber}{15}
\setcounter{@pps}{0}
\setcounter{@ppsavesec}{0}
\setcounter{@ppsaveapp}{0}
\setcounter{lstlisting}{0}
}
