\relax 
\@writefile{toc}{\contentsline {chapter}{\numberline {5}Implementation of The Hybrid Model}{25}}
\@writefile{lof}{\addvspace {10\p@ }}
\@writefile{lot}{\addvspace {10\p@ }}
\@writefile{toc}{\contentsline {section}{\numberline {5.1}Modular Design details}{25}}
\@writefile{lof}{\contentsline {figure}{\numberline {5.1}{\ignorespaces Stages in the model\relax }}{25}}
\newlabel{fr_flowchartmodules}{{5.1}{25}}
\citation{fr_clandmark-main}
\@writefile{toc}{\contentsline {section}{\numberline {5.2}Preprocessing Stage}{26}}
\@writefile{toc}{\contentsline {section}{\numberline {5.3}Finding Landmarks}{26}}
\@writefile{lof}{\contentsline {figure}{\numberline {5.2}{\ignorespaces Landmarks identified on a face by Clandmark in dense mode\relax }}{27}}
\newlabel{fr_face_model}{{5.2}{27}}
\@writefile{toc}{\contentsline {section}{\numberline {5.4}Generating the Feature Vector}{27}}
\@writefile{lof}{\contentsline {figure}{\numberline {5.3}{\ignorespaces Distance between corresponding landmark points on either halves of the face computed to provide 8 values that characterise the shape of the face in general\relax }}{28}}
\newlabel{fr_face_chin}{{5.3}{28}}
\@writefile{lof}{\contentsline {figure}{\numberline {5.4}{\ignorespaces Distances calculated to abstract width and shape of eyebrows\relax }}{28}}
\newlabel{fr_face_eyebrows}{{5.4}{28}}
\@writefile{lof}{\contentsline {figure}{\numberline {5.5}{\ignorespaces Width of mouth and relative positions of eyes and mouth determined\relax }}{29}}
\newlabel{fr_face_mouth}{{5.5}{29}}
\@writefile{lof}{\contentsline {figure}{\numberline {5.6}{\ignorespaces Distance between endpoints of the eyebrows and the nose calculated to establish relative positions\relax }}{29}}
\newlabel{fr_face_nose}{{5.6}{29}}
\@writefile{toc}{\contentsline {section}{\numberline {5.5}Neural Network Operation}{30}}
\@writefile{toc}{\contentsline {section}{\numberline {5.6}Interpreting Results from Neural Network}{30}}
\@writefile{lof}{\contentsline {figure}{\numberline {5.7}{\ignorespaces Illustration of operation of face recognition.\relax }}{31}}
\newlabel{fr_VKH_detect}{{5.7}{31}}
\@writefile{toc}{\contentsline {section}{\numberline {5.7}Factors affecting performance}{32}}
\@writefile{toc}{\contentsline {subsection}{\numberline {5.7.1}Preprocessing Stage performance}{32}}
\@writefile{toc}{\contentsline {subsection}{\numberline {5.7.2}Landmarking Stage}{32}}
\@writefile{toc}{\contentsline {subsection}{\numberline {5.7.3}Feature Vector Generation Stage}{33}}
\@writefile{toc}{\contentsline {subsection}{\numberline {5.7.4}Neural Network Stage}{33}}
\@writefile{toc}{\contentsline {subsection}{\numberline {5.7.5}Results Interpretation Stage}{33}}
\@setckpt{fr_chapter2}{
\setcounter{page}{34}
\setcounter{equation}{0}
\setcounter{enumi}{2}
\setcounter{enumii}{0}
\setcounter{enumiii}{0}
\setcounter{enumiv}{0}
\setcounter{footnote}{0}
\setcounter{mpfootnote}{0}
\setcounter{part}{0}
\setcounter{chapter}{5}
\setcounter{section}{7}
\setcounter{subsection}{5}
\setcounter{subsubsection}{0}
\setcounter{paragraph}{0}
\setcounter{subparagraph}{0}
\setcounter{figure}{7}
\setcounter{table}{0}
\setcounter{ContinuedFloat}{0}
\setcounter{lstnumber}{2}
\setcounter{@pps}{0}
\setcounter{@ppsavesec}{0}
\setcounter{@ppsaveapp}{0}
\setcounter{lstlisting}{0}
}
