\relax 
\@writefile{toc}{\contentsline {chapter}{\numberline {2}Requirements Specification}{3}}
\@writefile{lof}{\addvspace {10\p@ }}
\@writefile{lot}{\addvspace {10\p@ }}
\@writefile{toc}{\contentsline {section}{\numberline {2.1}Introduction}{3}}
\@writefile{toc}{\contentsline {subsection}{\numberline {2.1.1}Purpose}{3}}
\@writefile{toc}{\contentsline {subsection}{\numberline {2.1.2}Document Conventions}{3}}
\@writefile{toc}{\contentsline {subsection}{\numberline {2.1.3}Intended Audience and Reading Suggestions}{3}}
\@writefile{toc}{\contentsline {subsection}{\numberline {2.1.4}Product Scope}{4}}
\@writefile{toc}{\contentsline {subsection}{\numberline {2.1.5}References}{4}}
\@writefile{toc}{\contentsline {section}{\numberline {2.2}Overall Description}{5}}
\@writefile{toc}{\contentsline {subsection}{\numberline {2.2.1}Product Perspective}{5}}
\@writefile{lof}{\contentsline {figure}{\numberline {2.1}{\ignorespaces Flow Diagram of the System\relax }}{5}}
\providecommand*\caption@xref[2]{\@setref\relax\@undefined{#1}}
\newlabel{FlowDg}{{2.1}{5}}
\@writefile{toc}{\contentsline {subsection}{\numberline {2.2.2}Product Functions}{5}}
\@writefile{lot}{\contentsline {table}{\numberline {2.1}{\ignorespaces Description of Flow Diagram\relax }}{6}}
\@writefile{toc}{\contentsline {subsection}{\numberline {2.2.3}User Characteristics}{6}}
\@writefile{toc}{\contentsline {subsection}{\numberline {2.2.4}Operating Environment}{7}}
\@writefile{toc}{\contentsline {subsection}{\numberline {2.2.5}Design and Implementation Constraints}{7}}
\@writefile{toc}{\contentsline {subsection}{\numberline {2.2.6}Assumptions and Dependencies}{7}}
\@writefile{toc}{\contentsline {section}{\numberline {2.3}External Interface Requirements}{8}}
\@writefile{toc}{\contentsline {subsection}{\numberline {2.3.1}User Interfaces}{8}}
\@writefile{toc}{\contentsline {subsection}{\numberline {2.3.2}Software Interfaces}{8}}
\@writefile{toc}{\contentsline {subsection}{\numberline {2.3.3}Communications Interfaces}{8}}
\@writefile{toc}{\contentsline {section}{\numberline {2.4}System Features}{9}}
\@writefile{toc}{\contentsline {subsection}{\numberline {2.4.1}Recognition Module}{9}}
\@writefile{toc}{\contentsline {subsubsection}{Description and Priority}{9}}
\@writefile{toc}{\contentsline {subsubsection}{Stimulus/Response Sequences}{9}}
\@writefile{toc}{\contentsline {subsubsection}{Functional Requirements}{9}}
\@writefile{toc}{\contentsline {subsection}{\numberline {2.4.2}Tracking Module }{9}}
\@writefile{toc}{\contentsline {subsubsection}{Description and priority}{9}}
\@writefile{toc}{\contentsline {subsubsection}{Stimulus/Response sequences}{10}}
\@writefile{toc}{\contentsline {subsubsection}{Functional Requirements}{10}}
\@writefile{toc}{\contentsline {section}{\numberline {2.5}Other Non-functional Requirements}{10}}
\@writefile{toc}{\contentsline {subsection}{\numberline {2.5.1}Performance Requirements}{10}}
\@writefile{toc}{\contentsline {subsection}{\numberline {2.5.2}Safety Requirements}{10}}
\@writefile{toc}{\contentsline {subsection}{\numberline {2.5.3}Security Requirements}{10}}
\@writefile{toc}{\contentsline {subsection}{\numberline {2.5.4}Software Quality Attributes}{11}}
\@writefile{toc}{\contentsline {subsection}{\numberline {2.5.5}Business Rules}{11}}
\@setckpt{LaTeXSRS}{
\setcounter{page}{12}
\setcounter{equation}{0}
\setcounter{enumi}{2}
\setcounter{enumii}{0}
\setcounter{enumiii}{0}
\setcounter{enumiv}{0}
\setcounter{footnote}{0}
\setcounter{mpfootnote}{0}
\setcounter{part}{0}
\setcounter{chapter}{2}
\setcounter{section}{5}
\setcounter{subsection}{5}
\setcounter{subsubsection}{0}
\setcounter{paragraph}{0}
\setcounter{subparagraph}{0}
\setcounter{figure}{1}
\setcounter{table}{1}
\setcounter{ContinuedFloat}{0}
\setcounter{lstnumber}{1}
\setcounter{@pps}{0}
\setcounter{@ppsavesec}{0}
\setcounter{@ppsaveapp}{0}
\setcounter{lstlisting}{0}
}
