\relax 
\@writefile{toc}{\contentsline {chapter}{\numberline {4}Object Tracking}{22}}
\@writefile{lof}{\addvspace {10\p@ }}
\@writefile{lot}{\addvspace {10\p@ }}
\@writefile{toc}{\contentsline {section}{\numberline {4.1}Introduction}{22}}
\@writefile{toc}{\contentsline {section}{\numberline {4.2}Extracting Spatial Information}{22}}
\@writefile{toc}{\contentsline {subsection}{\numberline {4.2.1}Background Subtraction}{22}}
\@writefile{toc}{\contentsline {subsection}{\numberline {4.2.2}Noise Filtering}{23}}
\@writefile{toc}{\contentsline {subsection}{\numberline {4.2.3}Blob Detection and Extraction}{23}}
\citation{tracking_states}
\@writefile{toc}{\contentsline {section}{\numberline {4.3}Updating Tracked Objects}{24}}
\@writefile{toc}{\contentsline {subsection}{\numberline {4.3.1}States of an Object}{24}}
\@writefile{toc}{\contentsline {subsection}{\numberline {4.3.2}Tracking Algorithm}{24}}
\@writefile{lof}{\contentsline {figure}{\numberline {4.1}{\ignorespaces Transitions between object states.\relax }}{25}}
\newlabel{fig:state_tr}{{4.1}{25}}
\@setckpt{ObjectTrackingCh}{
\setcounter{page}{27}
\setcounter{equation}{0}
\setcounter{enumi}{4}
\setcounter{enumii}{0}
\setcounter{enumiii}{0}
\setcounter{enumiv}{0}
\setcounter{footnote}{0}
\setcounter{mpfootnote}{0}
\setcounter{part}{0}
\setcounter{chapter}{4}
\setcounter{section}{3}
\setcounter{subsection}{2}
\setcounter{subsubsection}{0}
\setcounter{paragraph}{0}
\setcounter{subparagraph}{0}
\setcounter{figure}{1}
\setcounter{table}{0}
\setcounter{ContinuedFloat}{0}
\setcounter{lstnumber}{1}
\setcounter{@pps}{0}
\setcounter{@ppsavesec}{0}
\setcounter{@ppsaveapp}{0}
\setcounter{lstlisting}{0}
}
