\relax 
\@input{abstract.aux}
\@input{Intro.aux}
\@input{LaTeXSRS.aux}
\@input{Design.aux}
\@input{tracking-imp.aux}
\@input{fr_chapter2.aux}
\@input{fr_chapter3.aux}
\@input{fr_chapter4.aux}
\@input{Conclusion.aux}
\@input{biblio.aux}
\@input{appendix.aux}
