\relax 
\@writefile{toc}{\contentsline {chapter}{\numberline {4}Implementation of Behaviour Analysis}{21}}
\@writefile{lof}{\addvspace {10\p@ }}
\@writefile{lot}{\addvspace {10\p@ }}
\@writefile{toc}{\contentsline {section}{\numberline {4.1}Video Analysis}{21}}
\@writefile{toc}{\contentsline {subsection}{\numberline {4.1.1}Background Subtraction}{21}}
\@writefile{toc}{\contentsline {subsection}{\numberline {4.1.2}Noise Filtering}{22}}
\@writefile{toc}{\contentsline {subsection}{\numberline {4.1.3}Blob Detection and Extraction}{22}}
\@writefile{toc}{\contentsline {subsection}{\numberline {4.1.4}Tracking Algorithm}{22}}
\@writefile{toc}{\contentsline {section}{\numberline {4.2}Implementing Neural Network}{23}}
\@writefile{toc}{\contentsline {subsection}{\numberline {4.2.1}Neural Network Creation}{23}}
\@writefile{toc}{\contentsline {subsubsection}{Platforms And Frameworks Used for Neural Network Creation}{23}}
\@writefile{toc}{\contentsline {subsubsection}{Creating Training Set}{23}}
\@writefile{toc}{\contentsline {subsubsection}{Creating Neural Networks}{23}}
\@writefile{toc}{\contentsline {subsubsection}{Training Neural Network}{24}}
\@writefile{toc}{\contentsline {subsubsection}{Tesing Neural Network}{24}}
\@setckpt{tracking-imp}{
\setcounter{page}{25}
\setcounter{equation}{0}
\setcounter{enumi}{2}
\setcounter{enumii}{0}
\setcounter{enumiii}{0}
\setcounter{enumiv}{0}
\setcounter{footnote}{0}
\setcounter{mpfootnote}{0}
\setcounter{part}{0}
\setcounter{chapter}{4}
\setcounter{section}{2}
\setcounter{subsection}{1}
\setcounter{subsubsection}{0}
\setcounter{paragraph}{0}
\setcounter{subparagraph}{0}
\setcounter{figure}{0}
\setcounter{table}{0}
\setcounter{ContinuedFloat}{0}
\setcounter{lstnumber}{2}
\setcounter{@pps}{0}
\setcounter{@ppsavesec}{0}
\setcounter{@ppsaveapp}{0}
\setcounter{lstlisting}{0}
}
